{
  "content": [
    {
      "id": 10,
      "email": "9cheese10yun@gmail.com",
      "lastName": null,
      "firstName": null,
      "mobile": null,
      "dob": null
    },
    {
      "id": 9,
      "email": "8cheese10yun@gmail.com",
      "lastName": null,
      "firstName": null,
      "mobile": null,
      "dob": null
    },
    {
      "id": 8,
      "email": "7cheese10yun@gmail.com",
      "lastName": null,
      "firstName": null,
      "mobile": null,
      "dob": null
    },
    {
      "id": 7,
      "email": "6cheese10yun@gmail.com",
      "lastName": null,
      "firstName": null,
      "mobile": null,
      "dob": null
    },
    {
      "id": 6,
      "email": "5cheese10yun@gmail.com",
      "lastName": null,
      "firstName": null,
      "mobile": null,
      "dob": null
    },
    {
      "id": 5,
      "email": "4cheese10yun@gmail.com",
      "lastName": null,
      "firstName": null,
      "mobile": null,
      "dob": null
    },
    {
      "id": 4,
      "email": "3cheese10yun@gmail.com",
      "lastName": null,
      "firstName": null,
      "mobile": null,
      "dob": null
    },
    {
      "id": 3,
      "email": "2cheese10yun@gmail.com",
      "lastName": null,
      "firstName": null,
      "mobile": null,
      "dob": null
    },
    {
      "id": 2,
      "email": "1cheese10yun@gmail.com",
      "lastName": null,
      "firstName": null,
      "mobile": null,
      "dob": null
    },
    {
      "id": 1,
      "email": "0cheese10yun@gmail.com",
      "lastName": null,
      "firstName": null,
      "mobile": null,
      "dob": null
    }
  ],
  "totalElements": 20,
  "totalPages": 2,
  "last": true,
  "size": 10,
  "number": 1,
  "sort": [
    {
      "direction": "DESC",
      "property": "id",
      "ignoreCase": false,
      "nullHandling": "NATIVE",
      "ascending": false,
      "descending": true
    }
  ],
  "numberOfElements": 10,
  "first": false
}